Trabajo de Inferencia Causal: Datos de cartera de seguros
…
data <- seguros %>%
    dplyr::select(-c(C_postal, C_rcmat_culpa, C_rcmat_inoc, poliza, fini, fvto, fpag,
        Veh_marca, Veh_cuso, Veh_peso, Veh_comb, Cus_des, ant_compnia, N_rcmat, N_rccorp,
        N_culpa, N_inoc, C_rcmat_agregado, C_rccorp, b7_longitud, b7_puertas, Tipo_veh,
        clase_veh, Score2, coste))

# table(seguros$pagar)
data

# A tibble: 25,000 × 9
    Edad Carne  Expo Veh_cdin Veh_val veh_ant precio accidente experiencia
   <dbl> <dbl> <dbl>    <dbl>   <dbl>   <dbl>  <dbl>     <dbl>       <dbl>
 1    67    47     6      650 571266       18      1         0           1
 2    48    30    19      193  29048       18      0         1           0
 3    58    38   365      170  48557.      18      1         0           1
 4    56    38    32      450 148366       17      1         0           1
 5    68    48   365      650 571331       17      1         0           1
 6    70    50    16      265  31644       16      1         0           1
 7    55    37   178      110  15901       13      0         0           1
 8    42    24   180      265  32342       13      1         0           0
 9    51    33   110      125  22540       12      0         0           0
10    55    36   180      115  22089.      11      0         0           1
# … with 24,990 more rows
…
